<svg width="640" height="480" viewBox="30 30 120 120" xmlns="http://www.w3.org/2000/svg" xmlns:svg="http://www.w3.org/2000/svg">
 <!-- Created with SVG-edit - https://github.com/SVG-Edit/svgedit-->
 <g class="layer">
  <title>Layer 1</title>
  <text fill="#000000" font-family="serif" font-size="24" id="svg_1" stroke="#000000" stroke-width="0" text-anchor="middle" x="52.5" xml:space="preserve" y="53.5">8643</text>
  <line fill="none" id="svg_2" stroke="#000000" stroke-width="5" x1="92.5" x2="94.5" y1="30.5" y2="129.5"/>
  <line fill="none" id="svg_3" stroke="#000000" stroke-width="5" x1="94.5" x2="154.5" y1="62.5" y2="62.5"/>
  <text fill="#000000" font-family="serif" font-size="24" id="svg_4" stroke="#000000" stroke-width="0" text-anchor="middle" x="115.5" xml:space="preserve" y="52.5">10</text>
  <text fill="#000000" font-family="serif" font-size="24" id="svg_5" stroke="#000000" stroke-width="0" text-anchor="middle" x="125.5" xml:space="preserve" y="94.5">864</text>
  <text fill="#000000" font-family="serif" font-size="24" id="svg_6" stroke="#000000" stroke-width="0" text-anchor="middle" x="72.5" xml:space="preserve" y="86.5">3</text>
 </g>
</svg>
